1 10 20
100 200 125
201 210 89
900 1000 174
500 500 111
412 21 144
600 601 57
995 1 179
999 999 50
78 3 116
1 18 21
8 1 17
1 8 17
601 2 144
1 1 1
301 300 17
702 701 83
403 209 144
101 55 119
3 4 8
3 9 20
3001 1234 217
423 101 144
2 3 8
90 181 125
1000 2000 182
1000 2999 217
6 981 179
563 563 44
901 899 117
9 8 20
816 78 171
90 11 116
86 43 116
2006 1002 182
16 938 179
78 315 131
6 28 112
53 21 112
36 1 112
1000 71 179
44 38 110
17 51 112
70 465 144
1200 874 182
100 94 119
602 311 144
26 1 24
9000 892 262
7003 7000 151
53321 68666 335
47392 19486 324
5915 85396 351
61124 14062 340
64243 63095 330
15801 95530 351
42393 56959 340
99149 79371 333
23065 59112 340
69429 31410 340
37310 41754 306
54654 51473 340
98689 2350 351
69007 90459 351
35946 33554 324
71395 88594 351
3572 747 217
20121 36074 324
63051 89045 351
36717 32719 324
57189 92668 351
69649 98770 351
50603 29462 324
53792 22594 340
75742 46501 340
20865 727 279
7082 42313 324
50990 49951 278
8751 78727 351
10511 26009 282
17203 1478 276
39226 17595 324
47846 52764 340
62707 11371 340
63694 19707 340
43710 99164 351
84280 52172 351
97340 93969 328
95517 30633 351
35276 71661 340
11887 12046 250
13096 31345 308
67929 73886 325
23499 64953 340
93169 38657 351
50856 36245 314
80900 63941 351
77107 47004 351
51777 66812 340
54671 91277 351
1041 27080 308
